#amk 2

#pad $01E5

#option TempoImmunity
#option NoLoop

#0 $F4 $02
@3 t74 o5v255 e32d32e32v0 t90 ^4^16^32@9 $ED $7F $F3 t28 o3v255 c+16>c+32d32e16d32c+32<b16e32a32b16e16a2^16^32


#1
r2@9 $ED $7F $F3 o3v255 g+32g+32g+16a32g+32f+16<b32>e32f+16<b16>e2^16^32


#2
r4^8^16 @22 o3v255c16 @22  v128 c16@22  v157 c16@22  v186 c16@22 v255 c16@22  v157 c16@22 v255 c16@22  v128 c32@22  v157 c32@22 v255 c2^16^32

#3 v255
(1)[o4r2@2 $ED $6F $2F c+32d32e32c+32d32c+32<b32a16^32 
       o3 @4 $ED $3C $AA v209 e8a4 $E8 $06 $FF ^32 r4^16]

#4
(2)[o3 @4 $ED $3C $AA r2^4^16 v209 <b8>e4 $E8 $06 $FF ^32 r4^16]

#5
(1)

#6
(2)                