#amk 2

#pad $01E5

#option TempoImmunity
#option NoLoop

#0 $F4 $02
@3 t74 o5v255 e32d32e32 t90 r4^16^32@9 $ED $7F $F3    t28 o3v255 c+16>c+32<b32>c+16^32d32e32f+32d32c+32<b32d32e32g+32a1^32


#1
r2@9 $ED $7F $F3 o3v255 g+8^32g+32g+32g+32a32g+32f+32d32<b16>e1^16


#2
r4^8^16@22 o3v255c16 @22  v128 c16@22  v157 c16@22  v186 c16@22 v255 c16@22  v157 c16@22 v255 c16@22  v128 c32@22  v157 c32@22 v255 c1^16

#3
o4 r4^8^16@6 v255 c+4e4<$ED $6D $B1 a1^16

#4
o3 r4^8^16@6 v255 g+4b4 $ED $6D $B1 e1^16

#5
r2^4^16@7o3v255 b32r32g+32r32a1^16

#6
r2^4^16@7o3v255 r32e32r32 e32r1^16                