#SPC
{
	#author "S.N.N."
	#comment "Sky castle theme"
	#game "SMW Central Production 2"
}

#samples
{
	#optimized
	#AMM
	#sky_and_dream
	"CCymbal.brr"
	"CPiano.brr"
	"COboe.brr"
	"CChoir.brr"
}

;An SMW Central Production II - "Cumulus Chapel" - SNN

"ELEC=@13 $ED $3B $EF v130 p20,50"
"CRASH=@0 (\"CCymbal.brr\", $02) h0 v199 $ED $7B $F1 o4 c+4"
"PIANO=(\"CPiano.brr\", $04) $ED $6D $ED h1 v170 o3"
"OBOE=(\"COboe.brr\", $05) $ED $6E $E6 $EE $FF h2 p26,70 v190 o5"
$F0
;=================================================================;
#7 w160 t38 $EF $FC $40 $40 $F1 $05 $4A $01

;v0c4 /

ELEC
o4
	[>c+1e2^4<b4>f+2c+2e2<b2]2
	>c+1e1f+1c+1^1
	[r1]8

	o3 @11 $ED $0A $E6 v170
		$DE $2E $0C $38
		$EA $35
	[g+1b1>c+1<b1]2

	o5
	ELEC
	[c+1e1]2
	[r1]10

;=================================================================;

#1

;r4 / 
ELEC
	o4
	[g+1b2^4f+4>c+2<g+2b2f+2]2
	g+1b1>c+4<b4>c+4e4<g+1^1
	[r1]8

	o3 @11 $ED $0A $E6 v170
		$DE $2E $0C $38
		$EA $35
	[c+1e1f+1e1]2

	ELEC
	o4
	[g+1b1]2
	[r1]10

;=================================================================;

#2

;r4 / 
ELEC
	o4
	[e1f+2^4c+4g+2e2f+2c+2]2
	e1f+1g+1e1^1
	[r1]4 

	y11 @13 o5 v190 $ED $4C $ED p30,120
	(20)[<c+8>c+16<b16>c+16<b16>c+16<b16>]1 e4d+4
	(20) c+16<b16>f+8d+8c+8
	(20) e4d+8<b8
	f+1
	o4 @11 $ED $0A $E6 v170
		$DE $2E $0C $38
		$EA $35
	[c+1e1f+1e1]2
	>

	ELEC
	o4
	[e1f+1]2
	[r1]10

;=================================================================;

#3

;r4 / 
[r1]4 r8
;==========;
;MAIN PIANO;
;==========;
PIANO v200
	>g+8f+8g+16c+8^16>c+16<b16>c+16<b16g+8
	e8e16f+8^16c+8<b16>e16g+4b8
	f+8^16g+8^16b8e8^16c+8^16<g+8
	b16>c+16<b16>c+16<b16>c+16<b16>c+16<f+16g+16f+16g+16f+16g+16b8
	g+1
	[r1]4
	[g+1f+1]2
	>
	v190 y11
	r8  (35)[g+8f+8g+16c+8g+8f+8g+8^16]1
	c+8 (36)[f+8g+8f+16<b8>e8f+8g+8^16]1
	c+8 (35)
	c+8 (36)
	(37)[o6 v190 c+16< v170 b16 v150 g+16 v140 f+16 v130 e16 v120 d+16 v110 c+16< v100 b16>
	        v190 c+16< v170 b16 v150 g+16 v140 f+16 v130 e16 v120 d+16 v110 c+16< v100 b16
	
	       v160 o5c+16r8c+16r16e16r8<b16r16g+16r16b16r8^16]1
	> v190 b16 v170 g+16 v150 f+16 v140 e16 v130 d+16 v120 c+16< v110 b16 v100 g+16
	  v190 b16 v170 g+16 v150 f+16 v140 e16 v130 d+16 v120 c+16< v110 b16 v100 a16
	r1
	(37)
	 v170 o6e16d+16c+16<b16g+16f+16e16c+16>f+16d+16c+16<b16g+16f+16e16c+16
[r1]10

;=================================================================;

#4

;r4 / 
;=====;
;CHOIR;
;=====;
v180 @0 ("CChoir.brr", $05) p20,60 h1 $ED $24 $E6
	o3a1>
	$ED $28 $E6
	c1
	d2g2
	f1
	d1^1
	r1^1

h0
;=========;
;PAN FLUTE;
;=========;
	("CPanFlute.brr", $04) v140 $ED $0B $E0 v170 y11 p30,75
		o4c+16c+16c+16c+16f+8e2^8
		<b16>c+16e16f+8e8g+8b16g+8^16e8^16
		f+16e16f+16e16f+8g+8b16f+16b16f+16>c+8<b8
		$ED $3B $ED
		c+1^1

y10 v110
r8
    (45)[g+8f+8g+16c+8g+8f+8g+8^16]1
c+8 (46)[f+8g+8f+16<b8>e8f+8g+8^16]1
c+8 (45)
c+8 (46)

[o4g+1f+1]2
[r1]8

h0
;=====;
;CHOIR;
;=====;
v180 @0 ("CChoir.brr", $05) p20,60 h1 $ED $26 $E6
	o4 d1
	f1
	g1
	d2c2
	[r1]10

;=================================================================;

#0

;r4 / 
;=========;
;CELESTIAL;
;=========;
[r1]4
 @16 $ED $3A $E6 v160 p5,80
o5
c+1
<b1
g+1
b1
>c+1^1
[r1]3 v130
[c+1<b1>c+1<b1]2

;===========;
;REED MELODY;
;===========;
OBOE	$DE $2E $0C $38
		$EA $35
v255
(55)[$ED $3A $E6 o4c+1r4^16 $ED $7F $ED <b16>e16f+16g+8e8g+8]1  f+16<b16
> b2^8> $ED $7F $ED c+4<b8
 e2^8 $ED $7F $ED f+16g+8f+16g+16e16
(55)   b8
>e16d+16c+16<b16>f+16e16d+16<b16g+8c+8r8c+8
<b8r16b16g+8b8r8b16>d+16e8d+8
c+1^1
$EE $00
[r1]10

;=================================================================;

#6

;r4 / 
[r1]10
;=======;
;LOW PAN;
;=======;
("CPanFlute.brr", $04) v120 $ED $0B $E0
	o3 p30,75
	f+2b2
	$ED $3B $ED
	c+1^2^4
;==========;
;PERCUSSION;
;==========;
	y9
	o3  v255 @21c8 @21c8
	(60)[CRASH  v255 @23 v200 f+8<  v155 @22 g+8 @22g+8 @22g+8> v255 @23 f+8< v155 @22 g+8]1
	(61)[ v255 @21 c8 v155 @22 g+8> v255 @23 f+8<  v155 @22 g+8 @22g+8 @22g+8>   v255 @23 f+8<  v155 @22 g+8]3
	(60)
	(61)3
	(62)[CRASH v200  v255 @23 f+16f+16< v155 @22 g+8g+8g+8> v255 @23 f+8< v155 @22 g+8]1
	(63)[ v255 @21 c8 v155 @22 g+8> v255 @23 f+16 v255 @23 f+16< v155 @22 g+8 @22g+8 @22g+8> v255 @23 f+8< v155 @22 g+8]3
	(62)
	(63)3
	(62)
	(63)
	 v255 @21 c8 v155 @22 g+4 @22g+8 @22g+8 @22g+4 @22g+8
	@22g+2@22g+2







#5

$F4 $00
;r4 / 
v195
[@12a16@12a16 > @12a8 
@29d8 @12a16@12a16 <
@12a8 > @12a16@12a16
< @29d8 > @12a16@12a16]100
                

#amk=1
