#SPC
{
	#author "Jimmy52905"
	#comment "Grass/Industrial theme 3"
	#game "SMW Central Production 2"
}

#samples
{
	#default
	#AMM
	#sky_and_dream
}

#0 @1 v200 y07 w230 t62
$ED $4F $67
$DE $2E $06 $40
$EA $30

o4
[c+8<g+8b8>c+8f8c+8<b8>c+8
 c+8<g+8b8>c+8f8c+8<b8>c+8
 <b8f+8a8b8>d+8<b8a8b8>
 <b8f+8a8b8>d+8<b8a8b8>]2
v240
o5
(10)[g+8r16g+16f8g+8d+8g+8b8f+8
     g+8r16g+16f8g+8d+8g+16.a+32b8f+8
     b8r16b16a8b8f+8b8>d+8c+8<
     b8r16b16a8b8]1 f+16.d+32b16r16>d+8c+8<
(10)1 f+16.d32b16r16>d8<a8
>d+1
e2f+2

@0
$ED $4F $67
$DE $2E $06 $40
$EA $30

o5
(11)[c+8r16c+16c+8<g+8b8f+16.b32>d+8<b8>
     c+8r16c+16c+8<g+8b8g+16.>d+32f+8d+8
     e8r16e16e8<b8>d+8<b16.>d+32f+8d+8<
     b8r16b16b8g+8>]1 c8<f+16.>c32d+8c8
(11)1 d+8f+16.<b32>d+8<b8
>d+1
e2f+2

#1 @8 v255 y10
$ED $6F $B0

o2
(20)[c+8r16c+16g+8f8c+16c+16c+16c+16g+8f8]2
(21)[<b8r16b16>f+8d+8<b16b16b16b16>f+8d+8]2
(20)2
(21)2
(22)[c+8r16c+16g+8f8<b16b16b16b16>f+8d+8
     c+8r16c+16g+8f8<b16b16b16b16>f+8d+8
     <b8r16b16>f+8d+8<a16a16a16a16>e8c+8
     <b8r16b16>f+8d+8]1 <a16a16a16a16>a8e8
(22)1 <a16a16a16a16>a8f+8
(21)2
(23)[c+8.c+8.c+8<b16b16b8>f+8d+8
     c+8.c+8.c+8<b16b16b8>f+8d+8
     <b8.b8.b8>d+16d+16d+16d+16b8f+8
     <b8.b8.b8>]1 d+16d+16d+16d+16>c8<f+8
(23)1 d+16d+16d+16d+16b8f+8
(21)2

#2 @6 v180 y12
$ED $6C $A0

o5
(30)[c+8r16c+8r16c+4r4.
     c+8r16c+8r16c+4<g+8f8g+8
     b1
     b8r16b8r16b8]1 r8b8f+8b8
(30)1 b16b16b16r16b4
(31)[g+8r16g+8r16g+8f+8f+16r16f+8f+16r16
     g+8r16g+8r16g+8f+8f+16r16f+8f+16r16
     b8r16b8r16b8a8a16r16a8a16r16
     b8r16b8r16b8a8a16r16a4]2
b1^1
(32)[g+2b2
     g+2b2
     >e2d+2e2]1 d+2
(32)1 f+2<
b1^1

#3 @6 v180 y12
$ED $6C $A0

o4
(40)[g+8r16g+8r16g+4r4.
     g+8r16g+8r16g+4f8c+8f8
     f+1
     f+8r16f+8r16f+8]1 r8f+8d+8f+8
(40)1 f+16f+16f+16r16f+4
(41)[f8r16f8r16f8d+8d+16r16d+8d+16r16
     f8r16f8r16f8d+8d+16r16d+8d+16r16
     f+8r16f+8r16f+8e8e16r16e8e16r16
     f+8r16f+8r16f+8]1 e8e16r16e4
(41)1 f+8f+16r16f+4
f+1^1
(42)[e2f+2
     e2f+2
     b2b2b2]1 >c2<
(42)1 >d+2<
f+1^1

#4 @6 v180 y12
$ED $6C $A0

o4
(50)[f8r16f8r16f4r4.
     f8r16f8r16f4c+8<g+8>c+8
     d+1
     d+8r16d+8r16d+8]1 r8d+8<b8>d+8
(50)1 d+16d+16d+16r16d+4
(51)[c+8r16c+8r16c+8<b8b16r16b8b16r16>
     c+8r16c+8r16c+8<b8b16r16b8b16r16>
     d+8r16d+8r16d+8c+8c+16r16c+8c+16r16
     d+8r16d+8r16d+8]1 c+8c+16r16c+4
(51)1 d8d16r16d4
d+1^1
(52)[c+2d+2
     c+2d+2
     g+2f+2g+2]1 f+2
(52)1 b2
d+1^1

#5 @0 v240 y10
$ED $6F $59 o4
[r2]15
     c16 $DD $00 $14 $8C <f+16 $DD $00 $14 $86
     c8 $DD $00 $14 $80 f+8 $DD $00 $14 $86 c8 $DD $00 $14 $80
[r1]8
@1 $ED $7A $E0
o2
b1^1
(60)[g+2f+2
     g+2f+2
     b2>d+2
     e2]1 c2
(60)1 d+2
<b1^1

#6 @10 v255 y10
[r4]31
o3
c8c16c16
(70)[ @21c8 @21c8 @10c8  @21c8 @21c16 @21c16 @21c8 @10c8  @21c8
      @21c8.@21c16@10c8  @21c8 @21c16 @21c16 @21c8 @10c8  @21@21c8]4
[r4]7
@10 c8c16c16
[ @21c8 @21c8 @10c4  @21c16@21c16@21c8 @10c4]4
(70)2
r1^1

#7 @22 v255 y10

(80)[@22 c8 v128 @22 c16 v192 @22 c16 v255 @22 c8 v128 @22 c16 v192 @22 c16 v255 @22 c8 v128 @22 c16 v192 @22 c16 v255 @22 c8 @22 c8]17
[@22 c8 v128 @22 c16 v192 @22 c16 v255]3
[r4]17
(80)6                

#amk=1
