#samples
{
	#default
	#AMM
	#sky_and_dream
}

#0 w230 t55 @4 q7f v190 y10 $ED $0E $88 p0,0
$EF $FF $46 $46
$F1 $04 $32 $01
o3(1)[c2^4c4
c2^4{c8c8c8}
c2^4^8c8
c2{c4c4c4}
c2<a+2]/
@11 v235 $ED $1C $88 p20,40
[>c4c4c4{c8c8c8}
<a+4{a+8a+8a+8}a+8a+8a+4]3
>c4c4c4{c8c8c8}
<a+4{a+8a+8a+8}>c8c8c4
<g+1
>d+1
<f+1
>c+1
<e1
b1
$E8 $22 $FA
>c4{c8c8c8}c4{c8c8c8}
$E8 $22 $EB
{c+8c+8c+8}{c+8c+8c+8}c2
;
#1 @4 v190 $ED $0E $88 p0,0
o4(1)/
@11 v235 $ED $1C $88 p20,40
[>c1
<a+1]3
>c1
<a+2>c2
<g+1
>d+1
<f+1
>c+1
<e1
b1
$E8 $22 $FA
>c4{c8c8c8}c4{c8c8c8}
$E8 $22 $EB
{c8c8c8}{c8c8c8}c2
;
#2 @4 v190 $ED $0E $88 p0,0
o4e2^4e4
d+2^4{d+8d+8d+8}
d2^4^8d8
d+2{d+4d+4d+4}
e2d2/
@11 v235 $ED $1C $88 p20,40
e1
d2<a+2
>e1
d2c+4<a+4
>e1
d2<a+2
>e1
d2e2
c1
g1
<a+1
>f1
<g+1
>d+1
$E8 $22 $FA
e4{e8e8e8}e4{e8e8e8}
$E8 $22 $EB
{e8e8e8}{e8e8e8}e2
;
#3 @4 v190 $ED $0E $88 p0,0
o4g2^4g4
g2^4{g8g8g8}
f2^4^8f8
f2{f4f4f4}
g2f2/
@11 v235 $ED $1C $88 p20,40
g1
f1
g1
f2f+2
g1
f1
g1
f2g2
d+1
a+1
c+1
g+1
<b1
>f+1
$E8 $22 $FA
g4{g8g8g8}g4{g8g8g8}
$E8 $22 $EB
{g8g8g8}{g8g8g8}g2
;
#7 @4 v190 $ED $0E $88 p0,0
o5c2^4c4
<a+2^4{a+8a+8a+8}
a2^4^8a8
g+2{a+4g+4a+4}
>c2<a+2/
[r1]8
@11 v235 $ED $1C $88 p20,40
g+1
>d+1
<f+1
>c+1
<e1
b1
v220 $ED $0E $88 p0,0
$E8 $22 $FA
>c4{c8c8c8}c4{c8c8c8}
$E8 $22 $EB
{c8c8c8}{c8c8c8}c2
;
#5 @26 v255
o3@26c2@26c4@26c4
@26c4@26c4@26c4{@26c8@26c8@26c8}
@26c4{@26c8@26c8@26c8}@26c4@26c4
{@26c4@26c4@26c4}{@26c4@26c4@26c4}
@26c2@26c2/
[@26c4@26c4@26c4{@26c8@26c8@26c8}
@26c4{@26c8@26c8@26c8}@26c8@26c8@26c4]7
@26c4{@26c8@26c8@26c8}@26c4{@26c8@26c8@26c8}
{@26c8@26c8@26c8}{@26c8@26c8@26c8}@26c2
;
#6 @11 v235 p10,20
o4[r1]4
{c4e4g4}{a+4a4a+4}/
>c2<g4>c4
<a+4a4g4f4
e2^4g4
a+2f+2
>c2<g4>c4
<a+4a4g4a8a+8
>c1
<a+4g4>c2
c2<g+4>c4
<a+2g2
a+2f+4a+4
g+2f2
g+2e4g+4
b4f+4d+4b4
>[c1]2
;
#4 @14 v235 p10,20 $EE $22
o5[r1]4
{c4e4g4}{a+4a4a+4}/
>c2<g4>c4
<a+4a4g4f4
e2^4g4
a+2f+2
>c2<g4>c4
<a+4a4g4a8a+8
>c1
<a+4g4>c2
c2<g+4>c4
<a+2g2
a+2f+4a+4
g+2f2
g+2e4g+4
b4f+4d+4b4
>[c1]2                

#amk=1
